[
  {
    "model": "auth.group",
    "pk": 1,
    "fields": {
      "name": "SPI",
      "permissions": []
    }
  },
  {
    "model": "auth.group",
    "pk": 2,
    "fields": {
      "name": "Debian France",
      "permissions": []
    }
  },
  {
    "model": "auth.group",
    "pk": 3,
    "fields": {
      "name": "Debian.ch",
      "permissions": []
    }
  },
  {
    "model": "auth.group",
    "pk": 4,
    "fields": {
      "name": "DPL",
      "permissions": []
    }
  }
]
